<?xml version="1.0" encoding="utf-8"?>
<svg viewBox="0 0 500 500" xmlns="http://www.w3.org/2000/svg" xmlns:bx="https://boxy-svg.com">
  <path style="stroke: rgb(0, 0, 0); fill: rgba(216, 216, 216, 0); stroke-width: 80px;" d="M 182.669 46.367 L 318.878 250.681 L 182.669 454.995" bx:origin="0.500195 0.500047"/>
</svg>