<?xml version="1.0" encoding="utf-8"?>
<svg viewBox="0 0 500 500" xmlns="http://www.w3.org/2000/svg" xmlns:bx="https://boxy-svg.com">
  <path d="M -500 -359.468 H -265.554 L -265.554 -448.332 L 0 -249.166 L -265.554 -50 L -265.554 -138.865 H -500 V -359.468 Z" style="stroke: rgb(0, 0, 0); fill-rule: nonzero; stroke-width: 0px;" transform="matrix(-1, 0, 0, -1, 0, 0)" bx:shape="arrow -500 -448.332 500 398.332 220.603 265.554 0 1@82001471"/>
</svg>