<?xml version="1.0" encoding="utf-8"?>
<svg viewBox="0 0 200 200" xmlns="http://www.w3.org/2000/svg">
  <ellipse style="stroke-width: 20px; stroke: rgb(0, 0, 0); fill: rgb(0, 162, 255);" cx="100" cy="100" rx="90" ry="90"/>
  <text style="font-family: Arial, sans-serif; font-size: 160.2px; font-weight: 700; white-space: pre;" x="53.221" y="155.624">=</text>
</svg>