<?xml version="1.0" encoding="utf-8"?>
<svg viewBox="0 0 500 500" xmlns="http://www.w3.org/2000/svg">
  <text style="font-family: Arial, sans-serif; font-size: 600px; white-space: pre;" x="-53.086" y="457.242" dx="127.889" dy="0.77">=</text>
</svg>