<?xml version="1.0" encoding="utf-8"?>
<svg viewBox="0 0 500 500" xmlns="http://www.w3.org/2000/svg">
  <line style="stroke: rgb(0, 0, 0); fill: rgb(255, 255, 255); stroke-width: 50px;" x1="125" y1="250" x2="375" y2="250"/>
  <line style="stroke: rgb(0, 0, 0); fill: rgb(255, 255, 255); stroke-width: 50px;" x1="125" y1="145" x2="375" y2="145"/>
  <line style="stroke: rgb(0, 0, 0); fill: rgb(255, 255, 255); stroke-width: 50px;" x1="125" y1="355" x2="375" y2="355"/>
</svg>