<?xml version="1.0" encoding="utf-8"?>
<svg viewBox="0 0 200 200" xmlns="http://www.w3.org/2000/svg">
  <ellipse style="stroke: rgb(0, 0, 0); fill: rgb(255, 255, 255); stroke-width: 15px; stroke-linecap: round; stroke-dasharray: 1, 39.5;" cx="100" cy="100" rx="90" ry="90"/>
</svg>