<?xml version="1.0" encoding="utf-8"?>
<svg viewBox="0 0 200 200" xmlns="http://www.w3.org/2000/svg">
  <ellipse style="stroke-width: 20px; stroke: rgb(0, 0, 0); fill: rgb(0, 255, 0);" cx="100" cy="100" rx="90" ry="90"/>
  <path style="stroke: rgb(0, 0, 0); fill: rgba(255, 255, 255, 0); stroke-width: 19px;" d="M 67.891 104.846 L 93.197 127.818 L 132.11 72.183"/>
</svg>