<?xml version="1.0" encoding="utf-8"?>
<svg viewBox="0 0 500 500" xmlns="http://www.w3.org/2000/svg">
  <path style="stroke-width: 64px; fill: rgba(216, 216, 216, 0); stroke: rgb(218, 17, 17);" d="M 108.628 393.169 L 386.749 101.181"/>
  <path style="stroke-width: 64px; fill: rgba(216, 216, 216, 0); stroke: rgb(218, 17, 17);" d="M 399.845 390.087 L 102.464 101.952"/>
</svg>