<?xml version="1.0" encoding="utf-8"?>
<svg viewBox="0 0 500 500" xmlns="http://www.w3.org/2000/svg">
  <polygon style="stroke: rgb(0, 0, 0); fill: rgb(255, 255, 255); stroke-width: 25px;" points="162.074 417.624 343.398 416.99 341.423 205.912 382.902 148.353 382.902 82.901 325.095 82.901 325.095 115.706 284.312 115.706 284.312 82.376 213.897 82.376 213.897 116.259 174.172 116.259 174.172 82.411 117.098 82.411 117.098 147.767 162.905 208.542"/>
</svg>